{
"frames": {
	"Apple.png": {
		"frame": {"x":18, "y":235, "w":15, "h":16},
		"spriteSourceSize": {"x":0,"y":0,"w":16,"h":16},
		"sourceSize": {"w":16,"h":16}
	},
	"MelonCantaloupe.png": {
		"frame": {"x":0, "y":235, "w":16, "h":15},
		"spriteSourceSize": {"x":0,"y":1,"w":16,"h":16},
		"sourceSize": {"w":16,"h":16}
	},
	"MelonHoneydew.png": {
		"frame": {"x":0, "y":218, "w":16, "h":15},
		"spriteSourceSize": {"x":0,"y":1,"w":16,"h":16},
		"sourceSize": {"w":16,"h":16}
	},
	"MelonWater.png": {
		"frame": {"x":18, "y":218, "w":16, "h":15},
		"spriteSourceSize": {"x":0,"y":1,"w":16,"h":16},
		"sourceSize": {"w":16,"h":16}
	},
	"Onion.png": {
		"frame": {"x":36, "y":218, "w":15, "h":14},
		"spriteSourceSize": {"x":0,"y":2,"w":16,"h":16},
		"sourceSize": {"w":16,"h":16}
	},
	"Peach.png": {
		"frame": {"x":68, "y":218, "w":14, "h":16},
		"spriteSourceSize": {"x":1,"y":0,"w":16,"h":16},
		"sourceSize": {"w":16,"h":16}
	},
	"Strawberry.png": {
		"frame": {"x":52, "y":234, "w":14, "h":15},
		"spriteSourceSize": {"x":1,"y":1,"w":16,"h":16},
		"sourceSize": {"w":16,"h":16}
	},
	"Tomato.png": {
		"frame": {"x":35, "y":235, "w":15, "h":14},
		"spriteSourceSize": {"x":0,"y":2,"w":16,"h":16},
		"sourceSize": {"w":16,"h":16}
	},
	"knight iso char_idle_0.png": {
		"frame": {"x":142, "y":158, "w":30, "h":80},
		"spriteSourceSize": {"x":26,"y":2,"w":84,"h":84},
		"sourceSize": {"w":84,"h":84}
	},
	"knight iso char_idle_1.png": {
		"frame": {"x":142, "y":158, "w":30, "h":80},
		"spriteSourceSize": {"x":26,"y":2,"w":84,"h":84},
		"sourceSize": {"w":84,"h":84}
	},
	"knight iso char_idle_2.png": {
		"frame": {"x":142, "y":74, "w":34, "h":82},
		"spriteSourceSize": {"x":24,"y":0,"w":84,"h":84},
		"sourceSize": {"w":84,"h":84}
	},
	"knight iso char_idle_3.png": {
		"frame": {"x":142, "y":74, "w":34, "h":82},
		"spriteSourceSize": {"x":24,"y":0,"w":84,"h":84},
		"sourceSize": {"w":84,"h":84}
	},
	"knight iso char_run left_0.png": {
		"frame": {"x":178, "y":74, "w":20, "h":72},
		"spriteSourceSize": {"x":30,"y":12,"w":84,"h":84},
		"sourceSize": {"w":84,"h":84}
	},
	"knight iso char_run left_1.png": {
		"frame": {"x":48, "y":144, "w":46, "h":72},
		"spriteSourceSize": {"x":20,"y":10,"w":84,"h":84},
		"sourceSize": {"w":84,"h":84}
	},
	"knight iso char_run left_2.png": {
		"frame": {"x":0, "y":144, "w":46, "h":68},
		"spriteSourceSize": {"x":18,"y":16,"w":84,"h":84},
		"sourceSize": {"w":84,"h":84}
	},
	"knight iso char_run left_3.png": {
		"frame": {"x":174, "y":158, "w":20, "h":72},
		"spriteSourceSize": {"x":30,"y":12,"w":84,"h":84},
		"sourceSize": {"w":84,"h":84}
	},
	"knight iso char_run left_4.png": {
		"frame": {"x":100, "y":0, "w":44, "h":72},
		"spriteSourceSize": {"x":22,"y":10,"w":84,"h":84},
		"sourceSize": {"w":84,"h":84}
	},
	"knight iso char_run left_5.png": {
		"frame": {"x":0, "y":0, "w":50, "h":70},
		"spriteSourceSize": {"x":16,"y":14,"w":84,"h":84},
		"sourceSize": {"w":84,"h":84}
	},
	"knight iso char_run right_0.png": {
		"frame": {"x":146, "y":0, "w":20, "h":72},
		"spriteSourceSize": {"x":34,"y":12,"w":84,"h":84},
		"sourceSize": {"w":84,"h":84}
	},
	"knight iso char_run right_1.png": {
		"frame": {"x":52, "y":70, "w":46, "h":72},
		"spriteSourceSize": {"x":18,"y":10,"w":84,"h":84},
		"sourceSize": {"w":84,"h":84}
	},
	"knight iso char_run right_2.png": {
		"frame": {"x":52, "y":0, "w":46, "h":68},
		"spriteSourceSize": {"x":20,"y":16,"w":84,"h":84},
		"sourceSize": {"w":84,"h":84}
	},
	"knight iso char_run right_3.png": {
		"frame": {"x":168, "y":0, "w":20, "h":72},
		"spriteSourceSize": {"x":34,"y":12,"w":84,"h":84},
		"sourceSize": {"w":84,"h":84}
	},
	"knight iso char_run right_4.png": {
		"frame": {"x":96, "y":144, "w":44, "h":72},
		"spriteSourceSize": {"x":18,"y":10,"w":84,"h":84},
		"sourceSize": {"w":84,"h":84}
	},
	"knight iso char_run right_5.png": {
		"frame": {"x":0, "y":72, "w":50, "h":70},
		"spriteSourceSize": {"x":18,"y":14,"w":84,"h":84},
		"sourceSize": {"w":84,"h":84}
	}

},
"meta": {
	"image": "sprites.png",
	"size": {"w": 256, "h": 256},
	"scale": "1"
}
}